<?xml version="1.0" encoding="UTF-8" standalone="no"?>
<!-- Created with Inkscape (http://www.inkscape.org/) -->

<svg
   xmlns:dc="http://purl.org/dc/elements/1.1/"
   xmlns:cc="http://creativecommons.org/ns#"
   xmlns:rdf="http://www.w3.org/1999/02/22-rdf-syntax-ns#"
   xmlns:svg="http://www.w3.org/2000/svg"
   xmlns="http://www.w3.org/2000/svg"
   xmlns:sodipodi="http://sodipodi.sourceforge.net/DTD/sodipodi-0.dtd"
   xmlns:inkscape="http://www.inkscape.org/namespaces/inkscape"
   width="5.9266667mm"
   height="5.9266667mm"
   viewBox="0 0 21 21"
   id="svg3703"
   version="1.1"
   inkscape:version="0.91 r13725"
   sodipodi:docname="off_specific_people.svg">
  <defs
     id="defs3705" />
  <sodipodi:namedview
     id="base"
     pagecolor="#ffffff"
     bordercolor="#666666"
     borderopacity="1.0"
     inkscape:pageopacity="0.0"
     inkscape:pageshadow="2"
     inkscape:zoom="2.8"
     inkscape:cx="-48.78571"
     inkscape:cy="-63.785708"
     inkscape:document-units="px"
     inkscape:current-layer="layer1"
     showgrid="false"
     fit-margin-top="0"
     fit-margin-left="0"
     fit-margin-right="0"
     fit-margin-bottom="0"
     inkscape:window-width="1920"
     inkscape:window-height="1018"
     inkscape:window-x="-8"
     inkscape:window-y="-8"
     inkscape:window-maximized="1" />
  <metadata
     id="metadata3708">
    <rdf:RDF>
      <cc:Work
         rdf:about="">
        <dc:format>image/svg+xml</dc:format>
        <dc:type
           rdf:resource="http://purl.org/dc/dcmitype/StillImage" />
        <dc:title></dc:title>
      </cc:Work>
    </rdf:RDF>
  </metadata>
  <g
     inkscape:label="Layer 1"
     inkscape:groupmode="layer"
     id="layer1"
     transform="translate(-423.78571,-376.14792)">
    <g
       id="g3503"
       transform="translate(423.78571,376.14792)">
      <path
         style="opacity:0.5"
         inkscape:connector-curvature="0"
         enable-background="new    "
         d="m 13.834,11.834 c 1.425,0 2.583,-1.159 2.583,-2.584 0,-1.426 -1.158,-2.583 -2.583,-2.583 -1.43,0 -2.583,1.157 -2.583,2.583 0,1.425 1.153,2.584 2.583,2.584 z m 0,1.291 c -2.584,0 -5.167,0.902 -5.167,2.064 L 8.667,17 19,17 19,15.189 c 0,-1.162 -2.583,-2.064 -5.166,-2.064 z"
         id="path3505" />
      <path
         inkscape:connector-curvature="0"
         d="M 9,10 C 10.656,10 12,8.658 12,7 12,5.344 10.656,4 9,4 7.344,4 6,5.344 6,7 c 0,1.658 1.344,3 3,3 z m 0,2 c -2,0 -6,1 -6,3 l 0,2 12,0 0,-2 c 0,-2 -4,-3 -6,-3 z"
         id="path3507" />
      <rect
         style="fill:#4387fd;fill-opacity:0"
         y="0"
         x="0"
         height="21"
         width="21"
         id="rect3509" />
    </g>
  </g>
</svg>
