{
  "options": {
    "checkboxes": true,
    "singleSelection": false,
    "autoUpdate": 30000
  },
  "columns": [
    {
      "id": "policy_id",
      "hidden": true,
      "primary": true
    }, {
      "id": "policy_name",
      "text": "Name",
      "converter": "policyName",
      "sortable": {
        "original": true
      },
      "style": {
        "width": "300px"
      }
    }, {
      "id": "policy_description",
      "hidden": true
    }, {
      "id": "context",
      "text": "SaaS",
      "converter": "entityTypeImage",
      "sortable": {
        "original": true
      }
    }, {
      "id": "entity_type",
      "text": "Entity type",
      "converter": "entityType",
      "sortable": {
        "original": true
      }
    }, {
      "id": "policy_status",
      "text": "Status",
      "converter": "policyStatus",
      "sortable": {
        "original": true
      }
    }, {
      "id": "entities_matches",
      "text": "Matched",
      "style": {
        "text-align": "center"
      },
      "dataStyle": {
        "font-size": "16px",
        "font-weight": "800",
        "color": "#f67e27",
        "text-align": "center"
      },
      "sortable": {
        "original": true
      }
    }, {
      "id": "entities_unmatches",
      "text": "Unmatched",
      "style": {
        "text-align": "center"
      },
      "dataStyle": {
        "text-align": "center"
      },
      "sortable": {
        "original": true
      }
    }, {
      "id": "entities_total",
      "text": "Total",
      "style": {
        "text-align": "center"
      },
      "dataStyle": {
        "text-align": "center"
      },
      "sortable": {
        "original": true
      }
    }, {
      "id": "last_match_time",
      "text": "Last match",
      "converter": "lastMatchConverter",
      "format": "time",
      "def": "Not matched",
      "sortable": {
        "original": true
      }
    }, {
      "id": "policy_id",
      "text": "Trend",
      "style": {
        "width": "120px"
      },
      "converter": "trendConverter",
      "converterArgs": {
        "flotOptions": {
          "hideBeforeCreate": true,
          "legend": {
            "show": false
          },
          "series": {
            "lines": {
              "show": true,
              "lineWidth": 1
            },
            "points": {
              "show": true
            }
          },
          "grid": {
            "show": false,
            "margin": 10,
            "hoverable": true
          },
          "colors": [
            "#da172c"
          ],
          "xaxis": {
            "tickColor": "#dcdcdc",
            "mode": "time",
            "timeformat": ""
          },
          "yaxis": {
            "ticks": 4,
            "min": 0
          },
          "tooltip": true,
          "tooltipOpts": {
            "content": "%y.0 discoveries at %x",
            "xDateFormat": "%y-%m-%d",
            "defaultTheme": false,
            "shifts": {
              "x": 0,
              "y": 20
            }
          }
        }
      }
    }
  ]
}