{
  "rows": [[
    {
      "type": "info",
      "logic": {
        "name": "applicationInfoLogic",
        "nameColumn": "name",
        "imageColumn": "icon_big"
      },
      "size": "small",
      "class": "application-info",
      "bodyStyle": {
        "height": "260px"
      },
      "wrapper": {
        "type": "widget-panel",
        "title": "Application info",
        "class": "avanan white-body"
      }
    }, {
      "type": "meta-info",
      "logic": {
        "name": "applicationMetaInfoLogic"
      },
      "uuid": "0424e4f4-2d18-444a-9322-c5a18ca8c0a1",
      "size": "medium",
      "bodyStyle": {
        "height": "260px"
      },
      "wrapper": {
        "type": "widget-panel",
        "title": "Application meta data",
        "class": "avanan white-body",
        "filters": [{
          "type": "flag",
          "text": "Advanced",
          "value": "advanced",
          "local": true
        }]
      },
      "pair": {
        "class": "application-meta-data"
      }
    }, {
      "type": "data-table",
      "logic": {
        "name": "applicationUsersLogic"
      },
      "size": "small",
      "bodyStyle": {
        "height": "260px"
      },
      "wrapper": {
        "type": "widget-panel",
        "title": "Application users",
        "class": "avanan white-body"
      },
      "class": "light",
      "columns": [{
        "id": "entity_id",
        "hidden": true,
        "primary": true
      }, {
        "id": "fullName",
        "text": "Name",
        "href": {
          "type": "user",
          "params": {
            "id": "entity_id"
          }
        }
      }, {
        "id": "primaryEmail",
        "text": "Email"
      }]
    }, {
      "type": "data-table",
      "logic": {
        "name": "applicationAccessLogic"
      },
      "size": "small",
      "bodyStyle": {
        "height": "260px"
      },
      "wrapper": {
        "type": "widget-panel",
        "title": "Application access",
        "class": "avanan white-body"
      },
      "class": "light",
      "columns": [
        {
          "id": "description",
          "text": "Description"
        }, {
          "id": "riskFactor",
          "text": "Risk"
        }
      ]
    }, {
      "type":"data-table",
      "logic": {
        "name": "applicationPolicyFindingsLogic",
        "updateTick": 5000
      },
      "size":"medium",
      "class": "light",
      "bodyStyle": {
        "height": "260px"
      },
      "wrapper": {
        "type": "widget-panel",
        "title": "Policy findings",
        "class": "avanan white-body"
      },
      "options":{
        "checkboxes":false,
        "pagesAround": 2,
        "pageSize": 100,
        "pagination": {
          "page": 1
        }
      },
      "columns":[ {
        "id": "policy_id",
        "hidden": true
      }, {
        "id": "insert_date",
        "text": "Date/time",
        "format": "time"
      }, {
        "id": "policy_name",
        "text": "Policy name",
        "href": {
          "type": "policy-edit",
          "params": {
            "id": "policy_id"
          }
        }
      }, {
        "id": "name",
        "text": "Name"
      }]
    }
  ]]
}
