<?xml version="1.0" encoding="UTF-8" standalone="no"?>
<!-- Created with Inkscape (http://www.inkscape.org/) -->

<svg
   xmlns:dc="http://purl.org/dc/elements/1.1/"
   xmlns:cc="http://creativecommons.org/ns#"
   xmlns:rdf="http://www.w3.org/1999/02/22-rdf-syntax-ns#"
   xmlns:svg="http://www.w3.org/2000/svg"
   xmlns="http://www.w3.org/2000/svg"
   xmlns:sodipodi="http://sodipodi.sourceforge.net/DTD/sodipodi-0.dtd"
   xmlns:inkscape="http://www.inkscape.org/namespaces/inkscape"
   width="5.9266667mm"
   height="5.9266667mm"
   viewBox="0 0 21 21"
   id="svg3615"
   version="1.1"
   inkscape:version="0.91 r13725"
   sodipodi:docname="anyone_with_link.svg">
  <defs
     id="defs3617" />
  <sodipodi:namedview
     id="base"
     pagecolor="#ffffff"
     bordercolor="#666666"
     borderopacity="1.0"
     inkscape:pageopacity="0.0"
     inkscape:pageshadow="2"
     inkscape:zoom="5.6"
     inkscape:cx="-34.5"
     inkscape:cy="-3.7857147"
     inkscape:document-units="px"
     inkscape:current-layer="layer1"
     showgrid="false"
     fit-margin-top="0"
     fit-margin-left="0"
     fit-margin-right="0"
     fit-margin-bottom="0"
     inkscape:window-width="1920"
     inkscape:window-height="1018"
     inkscape:window-x="-8"
     inkscape:window-y="-8"
     inkscape:window-maximized="1" />
  <metadata
     id="metadata3620">
    <rdf:RDF>
      <cc:Work
         rdf:about="">
        <dc:format>image/svg+xml</dc:format>
        <dc:type
           rdf:resource="http://purl.org/dc/dcmitype/StillImage" />
        <dc:title></dc:title>
      </cc:Work>
    </rdf:RDF>
  </metadata>
  <g
     inkscape:label="Layer 1"
     inkscape:groupmode="layer"
     id="layer1"
     transform="translate(-409.5,-507.57649)">
    <g
       id="g3491"
       transform="translate(409.5,507.57649)">
      <path
         inkscape:connector-curvature="0"
         d="M 16,11.166 C 16,9.332 12.333,8.6 10.5,8.6 8.667,8.6 5,9.332 5,11.166 l 0,1.832 11,0 0,-1.832 z M 10.5,7 C 11.88,7 12.99,5.881 12.99,4.5 12.99,3.119 11.88,2 10.5,2 9.12,2 8,3.119 8,4.5 8,5.881 9.12,7 10.5,7 Z M 7,16.498 C 7,16.774 7.225,17 7.5,17 z"
         id="path3493" />
      <rect
         style="fill:#4387fd;fill-opacity:0"
         y="0"
         x="0"
         height="21"
         width="21"
         id="rect3495" />
    </g>
  </g>
</svg>
