{
  "options": {
    "lineSelection": true,
    "singleSelection": true
  },
  "columns": [{
    "id": "template_name",
    "text": "Name",
    "primary": true,
    "sortable": true
  }, {
    "id": "template_desc",
    "text": "Description"
  }, {
    "id": "policy.policy_desc.saas",
    "text": "Saas",
    "sortable": {
      "original": true
    },
    "converter": "saasIcon"
  }, {
    "id": "policy.policy_desc.entityType",
    "text": "Entity type",
    "sortable": {
      "original": true
    },
    "converter": "entityType"
  }, {
    "id": "policy",
    "hidden": true
  }]
}