{
  "options": {
    "autoUpdate": 60000,
    "title": "Applications",
    "checkboxes": true,
    "highLightNew": false
  },
  "columns": [{
    "id": "entity_id",
    "hidden": true,
    "primary": true
  }, {
    "id": "type",
    "hidden": true
  }, {
    "id": "icon_medium",
    "text": false,
    "converter": "applicationImageConverter",
    "style": {
      "width": "40px"
    }
  }, {
    "id": "name",
    "text": "Name",
    "converter": "applicationNameConverter",
    "sortable": true
  }, {
    "id": "user_id",
    "hidden": true
  }, {
    "id": "fullName",
    "text": "User",
    "href": {
      "type": "user",
      "params": {
        "id": "user_id"
      }
    }
  }, {
    "id": "max_risk",
    "hidden": true
  }, {
    "id": "total_risk",
    "hidden": true
  },{
    "id": "scopes_risk",
    "text": "Risk factor",
    "converter": "applicationRiskFactorConverter",
    "sortable": {
      "id": "total_risk",
      "original": true,
      "number": true
    }
  }, {
    "id": "shortDescription",
    "text": "Description",
    "def": ""
  }, {
    "id": "usersWithApp",
    "text": "Installed",
    "converter": "installedAppConverter"
  }, {
    "id": "scopes_description",
    "text": "Scopes",
    "converter": "scopesListConverter"
  }]
}