{
  "widgets": [{
    "type": "info",
    "logic": {
      "name": "siteInfoLogic",
      "nameColumn": "server_relative_url"
    },
    "class": "site-info",
    "bodyStyle": {
      "height": "230px"
    },
    "size": "col-lg-6 col-md-12 col-sm-12 col-xm-12",
    "wrapper": {
      "type": "widget-panel",
      "title": "Site info",
      "class": "avanan white-body overflow-auto"
    }
  }, {
    "type": "meta-info",
    "logic": {
      "name": "siteMetaInfoLogic"
    },
    "uuid": "50a5c11e-2475-448b-b90d-3dc82a5807a7",
    "size": "col-lg-6 col-md-12 col-sm-12 col-xm-12",
    "bodyStyle": {
      "height": "230px"
    },
    "wrapper": {
      "type": "widget-panel",
      "title": "Site meta data",
      "class": "avanan white-body overflow-auto"
    },
    "pair": {
      "class": "file-meta-data"
    }
  }]
}