{
  "rows":[
    [{
      "type": "combo-box",
      "logic": {
        "name": "infoBoxComboLogic",
        "updateTick": null
      },
      "uuid": "dashboard-info-boxes-timeback",
      "size": "",
      "class": "info-box-combo",
      "wrapper": {
        "type": "none"
      },
      "variants": [{
        "id": 0,
        "label": "All time"
      }],
      "deprecatedVariants": [{
        "id": 60,
        "label": "Last hour"
      }, {
        "id": 1440,
        "label": "Today"
      }, {
        "id": 10080,
        "label": "Last 7 days"
      }, {
        "id": 20160,
        "label": "Last 14 days"
      }, {
        "id": 43200,
        "label": "Last 30 days"
      }],
      "data": 0
    }, {
      "type": "info",
      "logic": {
        "name": "infoBoxLogic",
        "id": "publicly-shared-files",
        "title": "Publicly shared files",
        "updateTick": 10000
      },
      "size": "col-lg-2 col-md-4 col-sm-4 col-xs-4",
      "class": "avanan-info-box",
      "wrapper": {
        "type": "widget-panel",
        "class": "avanan color1",
        "title": "Publicly shared files",
        "tooltip": "Organisation files which are available to every one"
      }
    }, {
      "type": "info",
      "logic": {
        "name": "infoBoxLogic",
        "id": "externally-shared-files",
        "title": "Externally shared files",
        "updateTick": 10000
      },
      "size": "col-lg-2 col-md-4 col-sm-4 col-xs-4",
      "class": "avanan-info-box",
      "wrapper": {
        "type": "widget-panel",
        "class": "avanan color2",
        "title": "Externally shared files",
        "tooltip": "Organisation files which are shared with external users"
      }
    }, {
      "type": "info",
      "logic": {
        "name": "infoBoxLogic",
        "id": "active-users",
        "title": "Active Users",
        "updateTick": 10000
      },
      "size": "col-lg-2 col-md-4 col-sm-4 col-xs-4",
      "class": "avanan-info-box",
      "wrapper": {
        "type": "widget-panel",
        "class": "avanan color3",
        "title": "Active Users"
      }
    }, {
      "type": "info",
      "logic": {
        "name": "infoBoxLogic",
        "id": "applications",
        "title": "Applications",
        "updateTick": 10000
      },
      "size": "col-lg-2 col-md-4 col-sm-4 col-xs-4",
      "class": "avanan-info-box",
      "wrapper": {
        "type": "widget-panel",
        "class": "avanan color4",
        "title": "Applications"
      }
    }, {
      "type": "info",
      "logic": {
        "name": "infoBoxLogic",
        "id": "external-users",
        "title": "External users",
        "updateTick": 10000
      },
      "size": "col-lg-2 col-md-4 col-sm-4 col-xs-4",
      "class": "avanan-info-box",
      "wrapper": {
        "type": "widget-panel",
        "class": "avanan color1",
        "title": "External users",
        "tooltip": "External users which have access to data on the drive"
      }
    }, {
      "type": "info",
      "logic": {
        "name": "infoBoxLogic",
        "id": "external-files",
        "title": "External files",
        "updateTick": 10000
      },
      "size": "col-lg-2 col-md-4 col-sm-4 col-xs-4",
      "class": "avanan-info-box",
      "wrapper": {
        "type": "widget-panel",
        "class": "avanan color2",
        "title": "External files",
        "tooltip": "Files which their owner is outside of the domain"
      }
    }],
    [{
      "type": "flot",
      "logic": {
        "name": "policiesPlotLogic",
        "updateTick": 60000,
        "days": 30
      },
      "uuid": "B26E4F70-D928-11E4-9FC1-4F654B860EDE",
      "size": "col-lg-12 col-md-12 col-sm-12 col-xs-12",
      "style": {
        "height": "251px"
      },
      "wrapper": {
        "type": "widget-panel",
        "class": "solid-avanan",
        "title": "Policy discoveries per day",
        "minimize": true
      },
      "flotOptions": {
        "legend":{
          "position": "nw",
          "backgroundColor": "null"
        },
        "series": {
          "lines": {
            "show": true,
            "steps": false,
            "lineWidth": 2
          },
          "points": {
            "show": true
          },
          "shadowSize": 0
        },
        "grid": {
          "hoverable": true,
          "clickable": true,
          "tickColor": "#dcdcdc",
          "borderWidth": 1,
          "borderColor": "#dcdcdc"
        },
        "colors": [
          "#2980b9",
          "#89b041",
          "#f39c12"
        ],
        "xaxis": {
          "tickColor": "#dcdcdc",
          "mode": "time",
          "timeformat": "%y-%m-%d",
          "size": 10,
          "ticks": 5
        },
        "yaxis": {
          "ticks": 4,
          "min": 0,
          "minTickSize": 1
        },
        "tooltip": true,
        "tooltipOpts": {
          "content": "%s: %y discoveries at %x",
          "xDateFormat": "%y-%m-%d",
          "defaultTheme": false,
          "shifts": {
            "x": 0,
            "y": 20
          }
        }
      }
    }]
  ]
}