{
  "remediationActionBuilderArgs": {
    "actionRepeatOptions": {
      "!send_mail": [{
        "label": "Notify user again after",
        "labelPostfix": "days",
        "data": 7
      }, {
        "label": "Send final notice after",
        "labelPostfix": "days",
        "data": 10
      }, {
        "label": "Revoke Public Share after",
        "labelPostfix": "days",
        "data": 14
      }]
    },
    "defaultData": {
      "send_mail": {
        "to": "{email}",
        "subject": "Public sharing of corporate data via Google-Drive",
        "content": "<p>Dear {user}</p>\n<p>&nbsp;</p>\n<p>While reviewing access permissions to corporate information we found that you have shared a few files and directories, publically, via google-drive.</p>\n<p>&nbsp;</p>\n<p>Sharing of corporate information has to be carefully watched, and we kindy request that you review your sharing definition. Please revoke unnecesary sharing if as soon as you can.</p>\n<p>&nbsp;</p>\n<p>With kind regards,</p>\n<p>&nbsp;</p>"
      }
    }
  },
  "options": {
    "autoUpdate": 5000,
    "title": "Publicly shared data",
    "checkboxes": true,
    "highLightNew": false,
    "expandable": true,
    "forceServerProcessing": true
  },
  "columns": [{
    "id": "rowPrimaryKey",
    "hidden": true,
    "converter": "composition",
    "converterArgs": {
      "entity_id": "entity_id",
      "entity_type": "entity_type"
    },
    "primaryKey": true
  }, {
    "id": "entity_id",
    "hidden": true
  }, {
    "id": "entity_type",
    "hidden": true
  }, {
    "id": "mimeType",
    "text": false,
    "def": "application/vnd.google-apps.folder",
    "converter": "mimeIconConverter",
    "converterArgs": {
      "niceMimeColumn": "nice_mime_type",
      "tooltip": "Folder"
    },
    "dataStyle": {
      "width": "40px"
    },
    "style": {
      "width": "40px"
    }
  }, {
    "id": "title",
    "text": "Title",
    "converter": "rowPendingLink",
    "converterArgs": {
      "typeColumnName": "entity_type",
      "idColumnName": "entity_id"
    },
    "sortable": true
  }, {
    "id": "count",
    "text": "Sub items",
    "converter": "subItemsConverter"
  }, {
    "id": "parent_ids",
    "hidden": "true"
  }, {
    "id": "parent_titles",
    "text": "Parent directory",
    "converter": "fileParentsListConverter"
  }, {
    "id": "quotaBytesUsed",
    "text": "Size",
    "format": "bytes",
    "def": "0 bytes"
  }, {
    "id": "owner_id",
    "hidden": true
  }, {
    "id": "fullName",
    "text": "Owner",
    "converter": "userWithEmail",
    "converterArgs": {
      "userIdColumn": "owner_id",
      "emailColumn": "primaryEmail"
    },
    "sortable": true
  }, {
    "id": "primaryEmail",
    "hidden": true
  }, {
    "id": "share_type",
    "text": "Share type"
  }, {
    "id": "last_share_time",
    "text": "Last share time",
    "format": "time"
  }, {
    "id": "last_access_time",
    "text": "Last access time",
    "format": "time"
  }, {
    "id": "users_id",
    "hidden": true
  }, {
    "id": "users_external",
    "hidden": true
  }, {
    "id": "users_names",
    "text": "Users with access",
    "converter": "listConverter",
    "converterArgs": {
      "type": "user",
      "ids": "users_id",
      "isExternal": "users_external",
      "countPostfix": "users"
    }
  }, {
    "id": "permission_group_ids",
    "hidden": true
  }, {
    "id": "permission_group_names",
    "text": "Groups with access",
    "converter": "listConverter",
    "converterArgs": {
      "type": "group",
      "ids": "permission_group_ids",
      "countPostfix": "groups"
    }
  }, {
    "id": "actions",
    "text": "Actions",
    "class": "actions-column",
    "converter": "actionsIconsConverter",
    "converterArgs": {
      "entity_type": "google_file"
    }
  }]
}