{
  "options": {
    "lineSelection": true,
    "singleSelection": true
  },
  "columns": [{
    "id": "name",
    "text": "Name",
    "primary": true,
    "sortable": true
  }, {
    "id": "description",
    "text": "Description"
  }, {
    "id": "saas",
    "text": "Saas",
    "sortable": {
      "original": true
    },
    "converter": "saasIcon"
  }, {
    "id": null,
    "hidden": true
  }]
}