{
  "menus": [{
    "title": "Dashboard",
    "icon": "fa-cloud",
    "name": "dashboard"
  }, {
    "title": "Policy",
    "icon": "fa-shield",
    "name": ["policy-list", "policy-create", "policy-edit"]
  }, {
    "title": "Reports",
    "icon": "fa-list",
    "feature": "reportsTab",
    "name": ["report-list", "report-create", "report-edit"]
  }, {
    "title": "Security Stack",
    "icon": "fa-table",
    "name": "security-stack",
    "feature": "securityStackTab"
  }, {
    "title": "Cloud Apps Store",
    "icon": "fa-laptop",
    "name": ["cloud-apps"],
    "feature": "cloudAppsTab"
  }, {
    "title": "Security Apps Store",
    "icon": "fa-tag",
    "name": ["app-store-all", "app-store"],
    "feature": "appStoreTab"
  }, {
    "title": "User management",
    "icon": "fa-user",
    "name": ["user-management", "user-management-create", "user-management-edit"],
    "feature": "userManagementTab"
  }]
}